<svg xmlns="http://www.w3.org/2000/svg" viewBox="0 0 23.813 34">
  <defs>
    <style>
      .cls-1 {
        fill: #fff;
      }
    </style>
  </defs>
  <g id="_004-placeholder" data-name="004-placeholder" transform="translate(-0.001 0)">
    <path id="Path_88" data-name="Path 88" class="cls-1" d="M25,12a4.443,4.443,0,1,0,4.443,4.443A4.449,4.449,0,0,0,25,12Zm0,7.617a3.174,3.174,0,1,1,3.174-3.174A3.177,3.177,0,0,1,25,19.617Z" transform="translate(-12.984 -4.606)"/>
    <path id="Path_89" data-name="Path 89" class="cls-1" d="M28.53,3.488a11.907,11.907,0,0,0-16.839,0C7.529,7.649,7.011,15.479,10.57,20.223L20.11,34l9.526-13.758C33.209,15.479,32.692,7.649,28.53,3.488Zm.1,16.029-8.518,12.3L11.578,19.5c-3.228-4.3-2.766-11.375.991-15.131a10.665,10.665,0,0,1,15.083,0C31.409,8.122,31.871,15.193,28.629,19.516Z" transform="translate(-8.203 0)"/>
  </g>
</svg>
